============================================================================================
Designer Conversion 

  Date Converted: October 24, 2010 5:45:48 p.m.
  Project Backup: C:\Users\cobusb\Documents\IDM-Projects\MTNNG-Prod_3.5.bak1
  Platform:       Windows 7
  Benefits:       Support newly added objects in 4.0
============================================================================================


===========================================================================

Identity Manager - 3.5 to 4.0

===========================================================================

---------------------------------------------------------------------------
#1 - Processing 3.5 files
---------------------------------------------------------------------------
	Process files
